[
  {
    "code": "X7R2OPX",
    "image": {
      "alt": "t-shirt with initials C O on the chest",
      "src": "/products/shirt.png"
    },
    "name": "Shirt",
    "price": 20,
    "quantity": 3,
    "total": 60
  },
  {
    "code": "X2G2OPZ",
    "image": {
      "alt": "white and purple mug",
      "src": "/products/mug.png"
    },
    "name": "Mug",
    "price": 5,
    "quantity": 4,
    "total": 20
  },
  {
    "code": "X3W2OPY",
    "image": {
      "alt": "purple cap",
      "src": "/products/cap.png"
    },
    "name": "Cap",
    "price": 10,
    "quantity": 4,
    "total": 40
  }
]
