// Jest Snapshot v1, https://goo.gl/fbAQLP

exports[`Component: Button Renders correctly 1`] = `
<button
  className="
    button
    
    button_primary
    "
  onClick={[MockFunction]}
>
  Click me
</button>
`;
