// Jest Snapshot v1, https://goo.gl/fbAQLP

exports[`Component: ItemRow Renders correctly 1`] = `
<li
  className="itemrow "
>
  <div
    className="details"
    onClick={[Function]}
  >
    <img
      alt="t-shirt with initials C O on the chest"
      className="image"
      src="/products/shirt.png"
    />
    <div
      className="text"
    >
      <p
        className="name"
      >
        Shirt
      </p>
      <p
        className="code"
      >
        Product code 
        X7R2OPX
      </p>
    </div>
  </div>
  <span
    className="aggregator"
  >
    <button
      className="button"
      onClick={[Function]}
      type="button"
    >
      -
    </button>
    <input
      aria-label="Product quantity"
      className="input"
      onChange={[Function]}
      onKeyDown={[Function]}
      type="number"
      value={3}
    />
    <button
      className="button"
      onClick={[Function]}
      type="button"
    >
      +
    </button>
  </span>
  <p
    className="price"
  >
    20 €
  </p>
  <p
    className="total"
  >
    60 €
  </p>
</li>
`;
